{
  "collection": "@nestjs/schematics",
  "sourceRoot": "src",
  "compilerOptions": {
    "plugins": ["@nestjs/swagger/plugin"],
    "webpack": true
  },
  "projects": {
    "utils": {
      "type": "library",
      "root": "libs/utils",
      "entryFile": "index",
      "sourceRoot": "libs/utils/src",
      "compilerOptions": {
        "tsConfigPath": "libs/utils/tsconfig.lib.json"
      }
    }
  }
}
